######################################################################
## PARAM_CARD AUTOMATICALY GENERATED BY MG5                       ####
######################################################################
###################################
## INFORMATION FOR DIM6
###################################
BLOCK DIM6 # 
      1 1.000000e+03 # lambda
      2 1.000000e+00 # ccc
      3 0.100000e+00 # ctg
      4 0.200000e+00 # cft
      5 0.300000e+00 # cfb
      6 0.400000e+00 # cfq1
      7 0.500000e+00 # cfq3
      8 0.600000e+00 # ctw
      9 0.700000e+00 # ctb
      10 0.800000e+00 # cff
      11 0.900000e+00 # cbw
      12 1.725000e+02 # muprime
###################################
## INFORMATION FOR EFT
###################################
BLOCK EFT # 
      1 0.000000e+00 # c4f
###################################
## INFORMATION FOR LOOP
###################################
BLOCK LOOP # 
      1 9.118800e+01 # mu_r
###################################
## INFORMATION FOR MASS
###################################
BLOCK MASS # 
      6 1.725000e+02 # mt
      15 1.777000e+00 # mta
      23 9.118760e+01 # mz
      25 1.250000e+02 # mh
      34 1.000000e+08 # mwp
      1 0.000000e+00 # d : 0.0
      2 0.000000e+00 # u : 0.0
      3 0.000000e+00 # s : 0.0
      4 0.000000e+00 # c : 0.0
      5 0.000000e+00 # b : 0.0
      11 0.000000e+00 # e- : 0.0
      12 0.000000e+00 # ve : 0.0
      13 0.000000e+00 # mu- : 0.0
      14 0.000000e+00 # vm : 0.0
      16 0.000000e+00 # vt : 0.0
      21 0.000000e+00 # g : 0.0
      22 0.000000e+00 # a : 0.0
      24 7.982436e+01 # w+ : cmath.sqrt(mz__exp__2/2. + cmath.sqrt(mz__exp__4/4. - (aew*cmath.pi*mz__exp__2)/(gf*sqrt__2)))
      9000002 9.118760e+01 # ghz : mz
      9000003 7.982436e+01 # ghwp : mw
      9000004 7.982436e+01 # ghwm : mw
###################################
## INFORMATION FOR SMINPUTS
###################################
BLOCK SMINPUTS # 
      1 1.279000e+02 # aewm1
      2 1.166370e-05 # gf
      3 1.184000e-01 # as
###################################
## INFORMATION FOR YUKAWA
###################################
BLOCK YUKAWA # 
      6 1.725000e+02 # ymt
      15 1.777000e+00 # ymtau
###################################
## INFORMATION FOR DECAY
###################################
DECAY 6 0.000000e+00 # wt
DECAY 23 2.495200e+00 # wz
DECAY 24 2.085000e+00 # ww
DECAY 25 4.070000e-03 # wh
DECAY 34 0.000000e+00 # wwp
DECAY 1 0.000000e+00 # d : 0.0
DECAY 2 0.000000e+00 # u : 0.0
DECAY 3 0.000000e+00 # s : 0.0
DECAY 4 0.000000e+00 # c : 0.0
DECAY 5 0.000000e+00 # b : 0.0
DECAY 11 0.000000e+00 # e- : 0.0
DECAY 12 0.000000e+00 # ve : 0.0
DECAY 13 0.000000e+00 # mu- : 0.0
DECAY 14 0.000000e+00 # vm : 0.0
DECAY 15 0.000000e+00 # ta- : 0.0
DECAY 16 0.000000e+00 # vt : 0.0
DECAY 21 0.000000e+00 # g : 0.0
DECAY 22 0.000000e+00 # a : 0.0
DECAY 9000002 2.495200e+00 # ghz : wz
DECAY 9000003 2.085000e+00 # ghwp : ww
DECAY 9000004 2.085000e+00 # ghwm : ww
###################################
## INFORMATION FOR QNUMBERS 34
###################################
BLOCK QNUMBERS 34 #                                            wp+
      1 3 # 3 times electric charge
      2 3 # number of spin states (2s+1)
      3 1 # colour rep (1: singlet, 3: triplet, 8: octet)
      4 1 # particle/antiparticle distinction (0=own anti)
